<?xml version="1.0" encoding="UTF-8" standalone="no"?>
<!-- Created with Inkscape (http://www.inkscape.org/) -->

<svg
   xmlns:dc="http://purl.org/dc/elements/1.1/"
   xmlns:cc="http://creativecommons.org/ns#"
   xmlns:rdf="http://www.w3.org/1999/02/22-rdf-syntax-ns#"
   xmlns:svg="http://www.w3.org/2000/svg"
   xmlns="http://www.w3.org/2000/svg"
   xmlns:sodipodi="http://sodipodi.sourceforge.net/DTD/sodipodi-0.dtd"
   xmlns:inkscape="http://www.inkscape.org/namespaces/inkscape"
   version="1.1"
   id="svg834"
   xml:space="preserve"
   width="794.56"
   height="1123.84"
   viewBox="0 0 794.56 1123.84"
   sodipodi:docname="checkbox_bizzares.svg"
   inkscape:version="0.92.4 5da689c313, 2019-01-14"><metadata
     id="metadata840"><rdf:RDF><cc:Work
         rdf:about=""><dc:format>image/svg+xml</dc:format><dc:type
           rdf:resource="http://purl.org/dc/dcmitype/StillImage" /><dc:title></dc:title></cc:Work></rdf:RDF></metadata><defs
     id="defs838"><clipPath
       clipPathUnits="userSpaceOnUse"
       id="clipPath850"><path
         d="M 0,0 H 2484 V 3513 H 0 Z"
         id="path848"
         inkscape:connector-curvature="0"
         style="clip-rule:evenodd" /></clipPath><clipPath
       clipPathUnits="userSpaceOnUse"
       id="clipPath886"><path
         d="M 120.83333,120.83333 H 2362.7083 V 3388.0208 H 120.83333 Z"
         id="path884"
         inkscape:connector-curvature="0"
         style="clip-rule:evenodd" /></clipPath><clipPath
       clipPathUnits="userSpaceOnUse"
       id="clipPath898"><path
         d="m 152.70833,150.05208 h 34.53125 v 34.53125 h -34.53125 z"
         id="path896"
         inkscape:connector-curvature="0"
         style="clip-rule:evenodd" /></clipPath><linearGradient
       x1="12"
       y1="11"
       x2="12"
       y2="15.56"
       gradientUnits="userSpaceOnUse"
       gradientTransform="matrix(0.24,0,0,-0.24,-34.572548,260.91169)"
       spreadMethod="pad"
       id="linearGradient910"><stop
         style="stop-opacity:1;stop-color:#ededed"
         offset="0"
         id="stop904" /><stop
         style="stop-opacity:1;stop-color:#ededed"
         offset="0.5"
         id="stop906" /><stop
         style="stop-opacity:1;stop-color:#dedede"
         offset="1"
         id="stop908" /></linearGradient><clipPath
       clipPathUnits="userSpaceOnUse"
       id="clipPath898-3"><path
         d="m 152.70833,150.05208 h 34.53125 v 34.53125 h -34.53125 z"
         id="path896-6"
         inkscape:connector-curvature="0"
         style="clip-rule:evenodd" /></clipPath><linearGradient
       x1="12"
       y1="11"
       x2="12"
       y2="15.56"
       gradientUnits="userSpaceOnUse"
       gradientTransform="matrix(0.6375,0,0,-0.6375,208.19088,811.18722)"
       spreadMethod="pad"
       id="linearGradient910-7"><stop
         style="stop-opacity:1;stop-color:#ededed"
         offset="0"
         id="stop904-5" /><stop
         style="stop-opacity:1;stop-color:#ededed"
         offset="0.5"
         id="stop906-3" /><stop
         style="stop-opacity:1;stop-color:#dedede"
         offset="1"
         id="stop908-5" /></linearGradient><linearGradient
       x1="12"
       y1="11"
       x2="12"
       y2="15.56"
       gradientUnits="userSpaceOnUse"
       gradientTransform="matrix(0.63750001,0,0,-0.63750001,142.61094,867.86119)"
       spreadMethod="pad"
       id="linearGradient910-7-7"><stop
         style="stop-opacity:1;stop-color:#ededed"
         offset="0"
         id="stop904-5-0" /><stop
         style="stop-opacity:1;stop-color:#ededed"
         offset="0.5"
         id="stop906-3-9" /><stop
         style="stop-opacity:1;stop-color:#dedede"
         offset="1"
         id="stop908-5-3" /></linearGradient><clipPath
       clipPathUnits="userSpaceOnUse"
       id="clipPath1116"><path
         d="m 152.70833,150.05208 h 34.53125 v 34.53125 h -34.53125 z"
         id="path1114"
         inkscape:connector-curvature="0"
         style="clip-rule:evenodd" /></clipPath><linearGradient
       x1="12"
       y1="11"
       x2="12"
       y2="15.56"
       gradientUnits="userSpaceOnUse"
       gradientTransform="matrix(0.6375,0,0,-0.6375,416.37168,874.86724)"
       spreadMethod="pad"
       id="linearGradient1128"><stop
         style="stop-opacity:1;stop-color:#ededed"
         offset="0"
         id="stop1122" /><stop
         style="stop-opacity:1;stop-color:#ededed"
         offset="0.5"
         id="stop1124" /><stop
         style="stop-opacity:1;stop-color:#dedede"
         offset="1"
         id="stop1126" /></linearGradient></defs><sodipodi:namedview
     pagecolor="#ffffff"
     bordercolor="#666666"
     borderopacity="1"
     objecttolerance="10"
     gridtolerance="10"
     guidetolerance="10"
     inkscape:pageopacity="0"
     inkscape:pageshadow="2"
     inkscape:window-width="1366"
     inkscape:window-height="704"
     id="namedview836"
     showgrid="false"
     inkscape:zoom="1.7653759"
     inkscape:cx="-25.107768"
     inkscape:cy="1142.8655"
     inkscape:window-x="0"
     inkscape:window-y="27"
     inkscape:window-maximized="1"
     inkscape:current-layer="g842"
     inkscape:snap-global="false" /><g
     id="g842"
     inkscape:groupmode="layer"
     inkscape:label="Checkbox"
     transform="matrix(0.31999998,0,0,0.31999998,0,2.8096e-5)"><g
       clip-path="url(#clipPath898)"
       id="g894"
       transform="translate(57.530244,-23.454638)"><g
         transform="matrix(2.65625,0,0,2.65625,120.83333,120.83333)"
         id="g900"><path
           inkscape:connector-curvature="0"
           id="path902"
           style="fill:#000000;fill-opacity:0.08240003;fill-rule:nonzero;stroke:none"
           d="m 12,22 v -8 c -10e-7,-0.265218 0.05074,-0.520341 0.152239,-0.765369 0.101495,-0.245028 0.24601,-0.46131 0.433547,-0.648845 0.187535,-0.187537 0.403817,-0.332052 0.648845,-0.433546 C 13.47966,12.050747 13.734782,12 14,12 h 8 c 0.265215,0 0.520336,0.05075 0.765364,0.15224 0.245027,0.101494 0.461311,0.246009 0.648847,0.433546 0.187537,0.187535 0.332051,0.403817 0.433544,0.648845 C 23.949249,13.47966 23.999998,13.734782 24,14 v 8 c -2e-6,0.265215 -0.05075,0.520336 -0.152245,0.765364 -0.101493,0.245027 -0.246007,0.461311 -0.433544,0.648847 -0.187536,0.187537 -0.40382,0.332051 -0.648847,0.433544 C 22.520336,23.949249 22.265215,23.999998 22,24 h -8 c -0.265218,-2e-6 -0.520341,-0.05075 -0.765369,-0.152245 -0.245028,-0.101493 -0.46131,-0.246007 -0.648845,-0.433544 -0.187537,-0.187536 -0.332052,-0.40382 -0.433547,-0.648847 C 12.050745,22.520336 11.999999,22.265215 12,22 Z" /><path
           inkscape:connector-curvature="0"
           id="path912"
           style="fill:url(#linearGradient910);fill-opacity:1;fill-rule:nonzero;stroke:none"
           d="m 12,21 v -8 c -10e-7,-0.265217 0.05074,-0.52034 0.152239,-0.765369 0.101495,-0.245028 0.24601,-0.46131 0.433547,-0.648845 0.187535,-0.187537 0.403817,-0.332052 0.648845,-0.433546 C 13.47966,11.050747 13.734782,11 14,11 h 8 c 0.265215,0 0.520336,0.05075 0.765364,0.15224 0.245027,0.101494 0.461311,0.246009 0.648847,0.433546 0.187537,0.187535 0.332051,0.403817 0.433544,0.648845 C 23.949249,12.47966 23.999998,12.734783 24,13 v 8 c -2e-6,0.265215 -0.05075,0.520338 -0.152245,0.765366 -0.101493,0.245027 -0.246007,0.461311 -0.433544,0.648847 -0.187536,0.187536 -0.40382,0.332051 -0.648847,0.433544 C 22.520336,22.949251 22.265215,22.999998 22,23 h -8 c -0.265218,-2e-6 -0.520341,-0.05075 -0.765369,-0.152243 -0.245028,-0.101493 -0.46131,-0.246008 -0.648845,-0.433544 -0.187537,-0.187536 -0.332052,-0.40382 -0.433547,-0.648847 C 12.050745,21.520338 11.999999,21.265215 12,21 Z" /><path
           inkscape:connector-curvature="0"
           id="path914"
           style="fill:none;stroke:#000000;stroke-width:1;stroke-linecap:butt;stroke-linejoin:miter;stroke-miterlimit:10;stroke-dasharray:none;stroke-opacity:0.25100002"
           d="m 12.5,20.5 v -7 c -10e-7,-0.265217 0.05074,-0.520339 0.152239,-0.765367 0.101494,-0.245029 0.24601,-0.461311 0.433547,-0.648846 0.187535,-0.187537 0.403817,-0.332052 0.648845,-0.433547 C 13.97966,11.550747 14.234782,11.5 14.5,11.5 h 7 c 0.265215,0 0.520336,0.05075 0.765364,0.15224 0.245027,0.101495 0.461309,0.24601 0.648847,0.433547 0.187537,0.187535 0.332051,0.403817 0.433544,0.648846 C 23.449249,12.979661 23.499998,13.234783 23.5,13.5 v 7 c -2e-6,0.265215 -0.05075,0.520336 -0.152245,0.765364 -0.101493,0.245027 -0.246007,0.461311 -0.433544,0.648849 -0.187538,0.187536 -0.40382,0.332051 -0.648847,0.433544 C 22.020336,22.449253 21.765215,22.5 21.5,22.5 h -7 c -0.265218,0 -0.52034,-0.05075 -0.765369,-0.152241 -0.245028,-0.101495 -0.46131,-0.24601 -0.648845,-0.433546 C 12.898249,21.726675 12.753733,21.510391 12.65224,21.265364 12.550745,21.020336 12.499999,20.765215 12.5,20.5 Z" /></g></g><path
       inkscape:connector-curvature="0"
       id="path902-9"
       style="fill:#000000;fill-opacity:0.08240003;fill-rule:nonzero;stroke:none;stroke-width:2.65625"
       d="m 331.89921,176.57804 v -21.25 c 0,-0.70449 0.13478,-1.38216 0.40438,-2.03301 0.2696,-0.65086 0.65347,-1.22536 1.15161,-1.7235 0.49814,-0.49814 1.07264,-0.88201 1.7235,-1.1516 0.65086,-0.26959 1.32852,-0.40439 2.03301,-0.40439 h 21.25 c 0.70448,0 1.38214,0.1348 2.033,0.40439 0.65085,0.26959 1.22536,0.65346 1.7235,1.1516 0.49814,0.49814 0.88201,1.07264 1.1516,1.7235 0.26959,0.65086 0.40439,1.32852 0.4044,2.03301 v 21.25 c -10e-6,0.70448 -0.1348,1.38214 -0.4044,2.033 -0.26959,0.65085 -0.65346,1.22536 -1.1516,1.7235 -0.49814,0.49814 -1.07265,0.88201 -1.7235,1.1516 -0.65086,0.26959 -1.32852,0.40439 -2.033,0.4044 h -21.25 c -0.70449,-10e-6 -1.38216,-0.1348 -2.03301,-0.4044 -0.65086,-0.26959 -1.22536,-0.65346 -1.7235,-1.1516 -0.49814,-0.49814 -0.88201,-1.07265 -1.15161,-1.7235 -0.26959,-0.65086 -0.40438,-1.32852 -0.40438,-2.033 z" /><path
       inkscape:connector-curvature="0"
       id="path912-1"
       style="fill:url(#linearGradient910-7);fill-opacity:1;fill-rule:nonzero;stroke:none;stroke-width:2.65625"
       d="m 331.89921,173.92179 v -21.25 c 0,-0.70448 0.13478,-1.38215 0.40438,-2.03301 0.2696,-0.65086 0.65347,-1.22536 1.15161,-1.7235 0.49814,-0.49814 1.07264,-0.88201 1.7235,-1.1516 0.65086,-0.26959 1.32852,-0.40439 2.03301,-0.40439 h 21.25 c 0.70448,0 1.38214,0.1348 2.033,0.40439 0.65085,0.26959 1.22536,0.65346 1.7235,1.1516 0.49814,0.49814 0.88201,1.07264 1.1516,1.7235 0.26959,0.65086 0.40439,1.32853 0.4044,2.03301 v 21.25 c -10e-6,0.70448 -0.1348,1.38215 -0.4044,2.033 -0.26959,0.65086 -0.65346,1.22536 -1.1516,1.7235 -0.49814,0.49815 -1.07265,0.88201 -1.7235,1.1516 -0.65086,0.2696 -1.32852,0.40439 -2.033,0.4044 h -21.25 c -0.70449,-10e-6 -1.38216,-0.1348 -2.03301,-0.4044 -0.65086,-0.26959 -1.22536,-0.65345 -1.7235,-1.1516 -0.49814,-0.49814 -0.88201,-1.07264 -1.15161,-1.7235 -0.26959,-0.65085 -0.40438,-1.32852 -0.40438,-2.033 z" /><path
       inkscape:connector-curvature="0"
       id="path914-2"
       style="fill:none;stroke:#000000;stroke-width:2.65625;stroke-linecap:butt;stroke-linejoin:miter;stroke-miterlimit:10;stroke-dasharray:none;stroke-opacity:0.25100002"
       d="m 333.22733,172.59366 v -9.29688 -9.29687 c 0,0 0.13478,-1.38215 0.40439,-2.033 0.26959,-0.65086 0.65346,-1.22536 1.15161,-1.7235 0.49814,-0.49814 1.07264,-0.88201 1.72349,-1.15161 0.16273,-0.0674 0.32711,-0.12638 0.49317,-0.17693 0.16607,-0.0506 0.33381,-0.0927 0.50323,-0.12638 0.16942,-0.0337 0.34051,-0.059 0.51328,-0.0758 0.17277,-0.0168 0.34721,-0.0253 0.52333,-0.0253 h 3.32082 v -4.92238 h 11.95215 v 4.92238 h 3.32081 c 0.70448,0 1.38215,0.13481 2.033,0.40439 0.65086,0.2696 1.22536,0.65347 1.7235,1.15161 0.49815,0.49814 0.88201,1.07264 1.1516,1.7235 0.2696,0.65085 0.4044,2.033 0.4044,2.033 v 9.29688 9.29687 c 0,0.70448 -0.1348,1.38215 -0.4044,2.033 -0.26959,0.65086 -0.65345,1.22536 -1.1516,1.72351 -0.49814,0.49814 -1.07264,0.88201 -1.7235,1.1516 -0.65085,0.2696 -1.32852,0.40439 -2.033,0.40439 h -18.59375 c -0.70448,0 -1.38215,-0.1348 -2.03301,-0.40439 -0.65085,-0.26959 -1.22535,-0.65346 -1.72349,-1.1516 -0.49815,-0.49815 -0.88202,-1.07265 -1.15161,-1.72351 -0.26959,-0.65085 -0.40439,-1.32852 -0.40439,-2.033 z"
       sodipodi:nodetypes="ccccccssssccscscccccccccsscsccc" /><path
       inkscape:connector-curvature="0"
       id="path902-9-6"
       style="fill:#000000;fill-opacity:0.08240003;fill-rule:nonzero;stroke:none;stroke-width:2.65625"
       d="m 266.31928,233.25202 v -21.25 c 0,-0.70449 0.13478,-1.38216 0.40438,-2.03301 0.2696,-0.65086 0.65347,-1.22536 1.15161,-1.7235 0.49814,-0.49814 1.07264,-0.88201 1.7235,-1.1516 0.65086,-0.26959 1.32852,-0.40439 2.03301,-0.40439 h 21.25 c 0.70448,0 1.38214,0.1348 2.033,0.40439 0.65085,0.26959 1.22537,0.65346 1.7235,1.1516 0.49814,0.49814 0.88201,1.07264 1.1516,1.7235 0.2696,0.65086 0.40439,1.32852 0.4044,2.03301 v 21.25 c -10e-6,0.70448 -0.13481,1.38214 -0.4044,2.03299 -0.26959,0.65085 -0.65346,1.22537 -1.1516,1.7235 -0.49813,0.49815 -1.07265,0.88202 -1.7235,1.1516 -0.65086,0.2696 -1.32852,0.4044 -2.033,0.4044 h -21.25 c -0.70449,0 -1.38216,-0.1348 -2.03301,-0.4044 -0.65086,-0.26958 -1.22536,-0.65345 -1.7235,-1.1516 -0.49814,-0.49813 -0.88201,-1.07265 -1.15161,-1.7235 -0.26959,-0.65085 -0.40438,-1.32851 -0.40438,-2.03299 z" /><path
       inkscape:connector-curvature="0"
       id="path912-1-0"
       style="fill:url(#linearGradient910-7-7);fill-opacity:1;fill-rule:nonzero;stroke:none;stroke-width:2.65625"
       d="m 266.31928,230.59577 v -21.25 c 0,-0.70448 0.13478,-1.38215 0.40438,-2.03301 0.2696,-0.65086 0.65347,-1.22536 1.15161,-1.7235 0.49814,-0.49814 1.07264,-0.88201 1.7235,-1.1516 0.65086,-0.26959 1.32852,-0.40439 2.03301,-0.40439 h 21.25 c 0.70448,0 1.38214,0.1348 2.033,0.40439 0.65085,0.26959 1.22537,0.65346 1.7235,1.1516 0.49814,0.49814 0.88201,1.07264 1.1516,1.7235 0.2696,0.65086 0.40439,1.32853 0.4044,2.03301 v 21.25 c -10e-6,0.70448 -0.13481,1.38215 -0.4044,2.033 -0.26959,0.65086 -0.65346,1.22536 -1.1516,1.7235 -0.49813,0.49815 -1.07265,0.88201 -1.7235,1.15159 -0.65086,0.2696 -1.32852,0.4044 -2.033,0.4044 h -21.25 c -0.70449,0 -1.38216,-0.1348 -2.03301,-0.4044 -0.65086,-0.26958 -1.22536,-0.65344 -1.7235,-1.15159 -0.49814,-0.49814 -0.88201,-1.07264 -1.15161,-1.7235 -0.26959,-0.65085 -0.40438,-1.32852 -0.40438,-2.033 z" /><path
       inkscape:connector-curvature="0"
       id="path914-2-6"
       style="fill:none;stroke:#000000;stroke-width:2.65625;stroke-linecap:butt;stroke-linejoin:miter;stroke-miterlimit:10;stroke-dasharray:none;stroke-opacity:0.25100002"
       d="m 267.6474,229.26764 v -9.29688 c 0,0 -4.25857,-2.54702 -4.25857,-4.64843 0,-2.10141 4.25857,-4.64844 4.25857,-4.64844 0,-0.70448 0.13479,-1.38215 0.40439,-2.033 0.26959,-0.65086 0.65346,-1.22536 1.15161,-1.7235 0.49814,-0.49814 1.07264,-0.88201 1.72349,-1.15161 0.16273,-0.0674 0.32711,-0.12638 0.49317,-0.17693 0.16607,-0.0506 0.33381,-0.0927 0.50323,-0.12638 0.16942,-0.0337 0.34051,-0.059 0.51328,-0.0758 0.17277,-0.0168 0.34721,-0.0253 0.52333,-0.0253 h 4.64844 4.64844 c 0,0 -0.0783,7.28889 6.5598,9.72286 -2.87651,-5.97429 -1.91133,-9.72286 -1.91133,-9.72286 h 4.64843 c 0.70448,0 1.38215,0.13481 2.033,0.40439 0.65086,0.2696 1.22536,0.65347 1.7235,1.15161 0.49815,0.49814 0.88202,1.07264 1.1516,1.7235 0.2696,0.65085 0.4044,1.32852 0.4044,2.033 0,0 4.25857,2.54703 4.25857,4.64844 0,2.10141 -4.25857,4.64844 -4.25857,4.64844 v 9.29687 c 0,0.70448 -0.13481,1.38215 -0.4044,2.033 -0.26959,0.65086 -0.65345,1.22536 -1.1516,1.72351 -0.49814,0.49814 -1.07264,0.88201 -1.7235,1.1516 -0.65085,0.2696 -1.32852,0.40439 -2.033,0.40439 h -18.59375 c -0.70448,0 -1.38215,-0.1348 -2.03301,-0.40439 -0.65085,-0.26959 -1.22535,-0.65346 -1.72349,-1.1516 -0.49815,-0.49815 -0.88202,-1.07265 -1.15161,-1.72351 -0.26959,-0.65085 -0.40439,-1.32852 -0.40439,-2.033 z"
       sodipodi:nodetypes="ccaccccssssccccsccccacccccsscsccc" /><path
       inkscape:connector-curvature="0"
       id="path1120"
       style="fill:#000000;fill-opacity:0.08240003;fill-rule:nonzero;stroke:none;stroke-width:2.65625"
       d="m 540.08001,240.25806 v -21.25 c 0,-0.70449 0.13478,-1.38216 0.40438,-2.03301 0.2696,-0.65086 0.65347,-1.22536 1.15161,-1.7235 0.49814,-0.49814 1.07264,-0.88201 1.7235,-1.1516 0.65086,-0.26959 1.32852,-0.40439 2.03301,-0.40439 h 21.25 c 0.70448,0 1.38214,0.1348 2.033,0.40439 0.65085,0.26959 1.22536,0.65346 1.7235,1.1516 0.49814,0.49814 0.88201,1.07264 1.1516,1.7235 0.26959,0.65086 0.40439,1.32852 0.4044,2.03301 v 21.25 c -10e-6,0.70448 -0.1348,1.38214 -0.4044,2.033 -0.26959,0.65085 -0.65346,1.22536 -1.1516,1.7235 -0.49814,0.49814 -1.07265,0.88201 -1.7235,1.1516 -0.65086,0.26959 -1.32852,0.40439 -2.033,0.4044 h -21.25 c -0.70449,-1e-5 -1.38216,-0.1348 -2.03301,-0.4044 -0.65086,-0.26959 -1.22536,-0.65346 -1.7235,-1.1516 -0.49814,-0.49814 -0.88201,-1.07265 -1.15161,-1.7235 -0.26959,-0.65086 -0.40438,-1.32852 -0.40438,-2.033 z" /><path
       inkscape:connector-curvature="0"
       id="path1130"
       style="fill:url(#linearGradient1128);fill-opacity:1;fill-rule:nonzero;stroke:none;stroke-width:2.65625"
       d="m 540.08001,237.60181 v -21.25 c 0,-0.70448 0.13478,-1.38215 0.40438,-2.03301 0.2696,-0.65086 0.65347,-1.22536 1.15161,-1.7235 0.49814,-0.49814 1.07264,-0.88201 1.7235,-1.1516 0.65086,-0.26959 1.32852,-0.40439 2.03301,-0.40439 h 21.25 c 0.70448,0 1.38214,0.1348 2.033,0.40439 0.65085,0.26959 1.22536,0.65346 1.7235,1.1516 0.49814,0.49814 0.88201,1.07264 1.1516,1.7235 0.26959,0.65086 0.40439,1.32853 0.4044,2.03301 v 21.25 c -10e-6,0.70448 -0.1348,1.38215 -0.4044,2.033 -0.26959,0.65086 -0.65346,1.22536 -1.1516,1.7235 -0.49814,0.49815 -1.07265,0.88201 -1.7235,1.1516 -0.65086,0.2696 -1.32852,0.40439 -2.033,0.4044 h -21.25 c -0.70449,-1e-5 -1.38216,-0.1348 -2.03301,-0.4044 -0.65086,-0.26959 -1.22536,-0.65345 -1.7235,-1.1516 -0.49814,-0.49814 -0.88201,-1.07264 -1.15161,-1.7235 -0.26959,-0.65085 -0.40438,-1.32852 -0.40438,-2.033 z" /><path
       inkscape:connector-curvature="0"
       id="path1132"
       style="fill:none;stroke:#000000;stroke-width:2.65625;stroke-linecap:butt;stroke-linejoin:miter;stroke-miterlimit:10;stroke-dasharray:none;stroke-opacity:0.25100002"
       d="m 541.40814,236.27368 v -18.59375 c -10e-6,-0.70448 0.13477,-1.38215 0.40438,-2.033 0.26959,-0.65086 0.65346,-1.22536 1.15161,-1.7235 0.49814,-0.49814 1.07264,-0.88201 1.72349,-1.15161 0.65086,-0.26959 1.32853,-0.40439 2.03302,-0.40439 h 18.59375 c 0.70447,0 1.38214,0.13481 2.03299,0.40439 0.65086,0.2696 1.22536,0.65347 1.7235,1.15161 0.49815,0.49814 0.88201,1.07264 1.1516,1.7235 0.2696,0.65085 0.4044,1.32852 0.40441,2.033 v 18.59375 c -10e-6,0.70448 -0.13481,1.38215 -0.40441,2.033 -0.26959,0.65086 -0.65345,1.22536 -1.1516,1.72351 -0.49814,0.49814 -1.07264,0.88201 -1.7235,1.1516 -0.65085,0.2696 -1.32852,0.40439 -2.03299,0.40439 h -18.59375 c -0.70449,0 -1.38216,-0.1348 -2.03302,-0.40439 -0.65085,-0.26959 -1.22535,-0.65346 -1.72349,-1.1516 -0.49815,-0.49815 -0.88202,-1.07265 -1.15161,-1.72351 -0.26959,-0.65085 -0.40439,-1.32852 -0.40438,-2.033 z" /><path
       inkscape:connector-curvature="0"
       id="path1134"
       style="fill:none;stroke:#000000;stroke-width:2.65625;stroke-linecap:butt;stroke-linejoin:miter;stroke-miterlimit:10;stroke-dasharray:none;stroke-opacity:0.70200004"
       d="m 339.86543,164.17833 5.84375,5.84375 11.68749,-14.60938" /><path
       inkscape:connector-curvature="0"
       id="path1134-2"
       style="fill:none;stroke:#000000;stroke-width:2.65625;stroke-linecap:butt;stroke-linejoin:miter;stroke-miterlimit:10;stroke-dasharray:none;stroke-opacity:0.70200004"
       d="m 274.18994,224.14309 5.84375,5.84375 11.68749,-14.60938" /><circle
       style="color:#000000;clip-rule:nonzero;display:inline;overflow:visible;visibility:visible;opacity:1;isolation:auto;mix-blend-mode:normal;color-interpolation:sRGB;color-interpolation-filters:linearRGB;solid-color:#000000;solid-opacity:1;vector-effect:none;fill:#424242;fill-opacity:1;fill-rule:evenodd;stroke:none;stroke-width:12.50000095;stroke-linecap:butt;stroke-linejoin:bevel;stroke-miterlimit:4;stroke-dasharray:none;stroke-dashoffset:0;stroke-opacity:1;paint-order:normal;color-rendering:auto;image-rendering:auto;shape-rendering:auto;text-rendering:auto;enable-background:accumulate"
       id="path1760"
       cx="275.48135"
       cy="214.18944"
       r="2.2127018" /></g></svg>