<?xml version="1.0" encoding="UTF-8" standalone="no"?>
<!-- Created with Inkscape (http://www.inkscape.org/) -->

<svg
   xmlns:dc="http://purl.org/dc/elements/1.1/"
   xmlns:cc="http://creativecommons.org/ns#"
   xmlns:rdf="http://www.w3.org/1999/02/22-rdf-syntax-ns#"
   xmlns:svg="http://www.w3.org/2000/svg"
   xmlns="http://www.w3.org/2000/svg"
   xmlns:sodipodi="http://sodipodi.sourceforge.net/DTD/sodipodi-0.dtd"
   xmlns:inkscape="http://www.inkscape.org/namespaces/inkscape"
   width="20"
   height="20"
   viewBox="0 0 5.2916665 5.2916668"
   version="1.1"
   id="svg958"
   sodipodi:docname="objet-off.svg"
   inkscape:version="0.92.4 5da689c313, 2019-01-14">
  <defs
     id="defs952" />
  <sodipodi:namedview
     id="base"
     pagecolor="#ffffff"
     bordercolor="#666666"
     borderopacity="1.0"
     inkscape:pageopacity="0.0"
     inkscape:pageshadow="2"
     inkscape:zoom="15.839192"
     inkscape:cx="11.600822"
     inkscape:cy="-2.3051501"
     inkscape:document-units="mm"
     inkscape:current-layer="layer1"
     showgrid="false"
     units="px"
     inkscape:window-width="1920"
     inkscape:window-height="1043"
     inkscape:window-x="0"
     inkscape:window-y="37"
     inkscape:window-maximized="0" />
  <metadata
     id="metadata955">
    <rdf:RDF>
      <cc:Work
         rdf:about="">
        <dc:format>image/svg+xml</dc:format>
        <dc:type
           rdf:resource="http://purl.org/dc/dcmitype/StillImage" />
        <dc:title></dc:title>
      </cc:Work>
    </rdf:RDF>
  </metadata>
  <g
     inkscape:label="Calque 1"
     inkscape:groupmode="layer"
     id="layer1"
     transform="translate(0,-291.70832)">
    <path
       inkscape:transform-center-y="5.4896192"
       inkscape:transform-center-x="-1.3396897"
       inkscape:connector-curvature="0"
       id="path1717-4"
       d="m 4.2679137,292.15657 -3.1608834,-0.011 0.010485,0.55547 c -0.00254,0.88512 0.5390123,1.38492 1.2599359,1.49741 l -0.00475,1.59941 -0.9579154,-0.0134 -0.00152,0.54266 2.434352,0.0294 0.00151,-0.54267 -0.9115683,-0.0132 0.00476,-1.6015 c 0.7508089,-0.12181 1.3273696,-0.78209 1.3294457,-1.48273 z"
       style="opacity:1;vector-effect:none;fill:#000000;fill-opacity:0.08235294;stroke:#000000;stroke-width:0.28693381;stroke-linecap:round;stroke-linejoin:round;stroke-miterlimit:4;stroke-dasharray:none;stroke-dashoffset:0;stroke-opacity:0.25100002"
       sodipodi:nodetypes="ccccccccccccc" />
  </g>
</svg>
