<?xml version="1.0" encoding="UTF-8" standalone="no"?>
<!-- Created with Inkscape (http://www.inkscape.org/) -->

<svg
   xmlns:dc="http://purl.org/dc/elements/1.1/"
   xmlns:cc="http://creativecommons.org/ns#"
   xmlns:rdf="http://www.w3.org/1999/02/22-rdf-syntax-ns#"
   xmlns:svg="http://www.w3.org/2000/svg"
   xmlns="http://www.w3.org/2000/svg"
   xmlns:sodipodi="http://sodipodi.sourceforge.net/DTD/sodipodi-0.dtd"
   xmlns:inkscape="http://www.inkscape.org/namespaces/inkscape"
   width="20"
   height="20"
   viewBox="0 0 5.2916665 5.2916668"
   version="1.1"
   id="svg958"
   sodipodi:docname="personnage-on.svg"
   inkscape:version="0.92.4 5da689c313, 2019-01-14">
  <defs
     id="defs952" />
  <sodipodi:namedview
     id="base"
     pagecolor="#ffffff"
     bordercolor="#666666"
     borderopacity="1.0"
     inkscape:pageopacity="0.0"
     inkscape:pageshadow="2"
     inkscape:zoom="15.839192"
     inkscape:cx="11.600822"
     inkscape:cy="-4.5779934"
     inkscape:document-units="mm"
     inkscape:current-layer="layer1"
     showgrid="false"
     units="px"
     inkscape:window-width="1920"
     inkscape:window-height="1043"
     inkscape:window-x="0"
     inkscape:window-y="37"
     inkscape:window-maximized="0" />
  <metadata
     id="metadata955">
    <rdf:RDF>
      <cc:Work
         rdf:about="">
        <dc:format>image/svg+xml</dc:format>
        <dc:type
           rdf:resource="http://purl.org/dc/dcmitype/StillImage" />
        <dc:title></dc:title>
      </cc:Work>
    </rdf:RDF>
  </metadata>
  <g
     inkscape:label="Calque 1"
     inkscape:groupmode="layer"
     id="layer1"
     transform="translate(0,-291.70832)">
    <g
       id="g1553">
      <path
         style="clip-rule:nonzero;fill:#000000;fill-opacity:0.08235294;stroke:#000000;stroke-width:0.23709418;stroke-linecap:round;stroke-linejoin:round;stroke-miterlimit:4;stroke-dasharray:none;stroke-opacity:0.25100002"
         d="M 1.6454603,293.35852 H 0.84332157 v 0.5283 l 0.78035003,-0.006 -0.87420553,1.62759 0.69626513,0.0932 -4.577e-4,0.3052 c 0,0.20063 0.1714042,0.4751 0.4267285,0.47263 l 1.6565195,0.002 c 0.2929313,0 0.5191939,-0.13458 0.5191939,-0.42811 -0.031616,-0.59976 -0.019857,-2.06726 -0.019857,-2.06726 H 4.676504 v -0.52816 H 4.0512087 v -0.19729 c 0,-0.55763 -0.4405693,-1.05232 -1.1969336,-1.03978 -0.7267546,0 -1.2088007,0.41473 -1.2088007,1.03976 z"
         id="path92-6-2-0-9-1"
         inkscape:connector-curvature="0"
         sodipodi:nodetypes="cccccccccccccccccc" />
      <circle
         r="0.34657425"
         style="opacity:1;vector-effect:none;fill:#000000;fill-opacity:0.25098039;stroke:none;stroke-width:0.22433375;stroke-linecap:round;stroke-linejoin:round;stroke-miterlimit:4;stroke-dasharray:none;stroke-dashoffset:0;stroke-opacity:0.25100002"
         id="path1090-42-3"
         cx="2.1032043"
         cy="294.8201" />
    </g>
    <path
       inkscape:connector-curvature="0"
       id="path1795"
       d="m 1.6774384,294.23778 0.7951047,1.28041 1.2554231,-2.64476"
       style="fill:none;stroke:#000000;stroke-width:0.47420043;stroke-linecap:butt;stroke-linejoin:miter;stroke-miterlimit:4;stroke-dasharray:none;stroke-opacity:1" />
  </g>
</svg>
